# t (s)	mx ()	my ()	mz ()	B_extx (T)	B_exty (T)	B_extz (T)	E_demag (J)	E_exch (J)	E_anis (J)	E_Zeeman (J)	E_total (J)	ext_topologicalcharge ()	ext_topologicalchargedensity (1/m2)
0	0.00013358469	0.00015163422	0.006606576	0	0	0	9.916801e-17	-5.522486e-17	-2.1873142e-16	-0	-1.7478828e-16	-5.9117446	-1.16076835e+14
0	1.9602583e-05	0.00045084115	0.058015235	0	0.00017449749	0.004996955	9.962277e-17	-5.464479e-17	-2.1907712e-16	-4.660762e-19	-1.7456523e-16	-15.783687	-3.0991196e+14
0	0.00033590588	0.0013273853	0.11019423	0	0.00034899497	0.00999391	1.0056123e-16	-5.4228343e-17	-2.2056074e-16	-1.7707962e-18	-1.7599866e-16	-25.676918	-5.041651e+14
0	-2.0744723e-05	0.0019781578	0.16580176	0	0.00052349264	0.014990865	1.0212219e-16	-5.3064563e-17	-2.222518e-16	-3.996579e-18	-1.7719077e-16	-36.542145	-7.1750334e+14
0	-4.5913064e-05	0.0029801882	0.2251284	0	0.00069798995	0.01998782	1.0441657e-16	-5.1687502e-17	-2.2512e-16	-7.2358244e-18	-1.7962674e-16	-48.39817	-9.502959e+14
0	0.0001882108	0.0033425367	0.2912398	0	0.00087248726	0.024984775	1.0757538e-16	-4.9410876e-17	-2.2823994e-16	-1.17001596e-17	-1.8177559e-16	-66.16596	-1.2991656e+15
0	8.2907056e-05	0.0043654395	0.3541839	0	0.0010469853	0.02998173	1.111003e-16	-4.710394e-17	-2.316546e-16	-1.707513e-17	-1.8473337e-16	-78.99834	-1.5511288e+15
0	-3.928936e-05	0.0046274904	0.426099	0	0.0012214825	0.034978684	1.1583356e-16	-4.392917e-17	-2.3616327e-16	-2.3964605e-17	-1.8822349e-16	-94.81347	-1.8616581e+15
0	-1.1172313e-05	0.0053796954	0.48985657	0	0.0013959799	0.03997564	1.2016675e-16	-4.1303762e-17	-2.394928e-16	-3.1486362e-17	-1.9211615e-16	-110.53243	-2.1702992e+15
0	-4.4010267e-07	0.006004948	0.5404453	0	0.0015704778	0.044972595	1.2399009e-16	-3.8958337e-17	-2.4235428e-16	-3.9080472e-17	-1.9640301e-16	-120.337814	-2.3628274e+15
0	1.4005764e-06	0.00663319	0.5821416	0	0.0017449745	0.04996955	1.2724523e-16	-3.6697653e-17	-2.4397744e-16	-4.6773355e-17	-2.002032e-16	-133.05078	-2.612446e+15
0	1.2991622e-06	0.007293664	0.6236551	0	0.0019194725	0.054966506	1.314378e-16	-3.3672494e-17	-2.4742894e-16	-5.512029e-17	-2.0478397e-16	-135.93037	-2.6689866e+15
0	-2.1852684e-06	0.007925085	0.6598383	0	0.0020939705	0.05996346	1.3524917e-16	-3.0696974e-17	-2.5028736e-16	-6.362064e-17	-2.093558e-16	-141.7285	-2.7828325e+15
0	-2.2603053e-06	0.008545156	0.6928214	0	0.0022684673	0.06496041	1.3899256e-16	-2.7537513e-17	-2.5309085e-16	-7.236835e-17	-2.1400416e-16	-148.47093	-2.91522e+15
0	-1.6763443e-07	0.009160655	0.72470486	0	0.002442965	0.06995737	1.4292444e-16	-2.3759051e-17	-2.559651e-16	-8.152259e-17	-2.1832227e-16	-158.07077	-3.1037125e+15
0	2.5298978e-06	0.009724842	0.7476317	0	0.002617462	0.07495431	1.4578799e-16	-2.0894298e-17	-2.5820172e-16	-9.011005e-17	-2.2341807e-16	-164.74802	-3.2348198e+15
0	-7.0431634e-06	0.010318992	0.77413714	0	0.0027919598	0.07995128	1.4947168e-16	-1.7442663e-17	-2.6159183e-16	-9.9526107e-17	-2.2908888e-16	-167.45116	-3.2878954e+15
0	-3.1394884e-06	0.010890225	0.79644537	0	0.0029664563	0.08494823	1.5268018e-16	-1.38423936e-17	-2.6437029e-16	-1.087951e-16	-2.343276e-16	-173.96033	-3.415703e+15
0	-7.3754927e-07	0.0114653595	0.81887835	0	0.0031409557	0.08994519	1.5608104e-16	-1.03577315e-17	-2.6773166e-16	-1.1844079e-16	-2.4044915e-16	-175.54533	-3.4468245e+15
0	-7.6240285e-06	0.011984877	0.83549595	0	0.0033154523	0.09494212	1.5860965e-16	-7.5007026e-18	-2.702202e-16	-1.2755943e-16	-2.466707e-16	-178.09404	-3.4968684e+15
0	4.4785775e-06	0.012546123	0.8548213	0	0.003489949	0.0999391	1.6173837e-16	-3.9206806e-18	-2.7347809e-16	-1.3738045e-16	-2.5304088e-16	-179.42558	-3.523013e+15
0	-1.2060202e-05	0.013036597	0.86819434	0	0.0036644484	0.10493601	1.6390583e-16	-1.1330709e-18	-2.7573453e-16	-1.4650787e-16	-2.5946967e-16	-181.7417	-3.56849e+15
0	-1.0130234e-05	0.0135628665	0.8824202	0	0.003838945	0.10993301	1.6626633e-16	1.9994537e-18	-2.782583e-16	-1.5600129e-16	-2.6599378e-16	-183.73186	-3.6075666e+15
0	-8.72445e-06	0.014070797	0.8965777	0	0.004013442	0.11492992	1.6868586e-16	4.7117097e-18	-2.8113365e-16	-1.6571077e-16	-2.734469e-16	-180.7873	-3.5497502e+15
0	1.3792487e-06	0.014625149	0.91099894	0	0.004187941	0.11992692	1.711822e-16	6.88586e-18	-2.8428294e-16	-1.756991e-16	-2.8191398e-16	-172.55849	-3.3881778e+15
0	5.3496133e-06	0.015181451	0.92708164	0	0.0043624374	0.12492383	1.7401359e-16	9.550255e-18	-2.8783823e-16	-1.8625304e-16	-2.905274e-16	-163.73878	-3.2150034e+15
0	1.8965839e-06	0.01563888	0.94203377	0	0.0045369347	0.12992083	1.7666268e-16	1.0252826e-17	-2.9156873e-16	-1.9682879e-16	-3.0148198e-16	-144.57243	-2.838673e+15
0	-1.7477105e-06	0.016200827	0.9605833	0	0.004711432	0.13491775	1.8000349e-16	8.430473e-18	-2.9660502e-16	-2.0842586e-16	-3.165969e-16	-105.47206	-2.0709391e+15
0	6.852417e-06	0.016788647	0.9912238	0	0.00488593	0.13991474	1.8562473e-16	2.1314527e-18	-3.0530175e-16	-2.2304042e-16	-3.4058602e-16	-24.591217	-4.828474e+14
0	-2.8232e-09	0.01713968	0.99985313	0	0.005060427	0.14491166	1.8721939e-16	-1.1804818e-26	-3.077962e-16	-2.3301898e-16	-3.535958e-16	-5.217506e-22	-1.0244548e-08
0	-2.5217664e-06	0.017436242	0.9996128	0	0.005234924	0.14990862	1.8717444e-16	1.00559895e-19	-3.0771955e-16	-2.4099858e-16	-3.6144315e-16	-0.8541076	-1.6770364e+13
0	-4.7801074e-09	0.017721683	0.99984276	0	0.0054094223	0.15490557	1.872156e-16	9.7322694e-27	-3.0779001e-16	-2.4909166e-16	-3.696661e-16	-9.264037e-24	-1.8189894e-10
