# t (s)	mx ()	my ()	mz ()	B_extx (T)	B_exty (T)	B_extz (T)	E_demag (J)	E_exch (J)	E_anis (J)	E_Zeeman (J)	E_total (J)	ext_topologicalcharge ()	ext_topologicalchargedensity (1/m2)
0	0.0052152113	-0.0057541346	0.02257044	0	0	0	3.4275037e-16	-1.7480171e-17	-5.4203676e-16	-0	-2.1676653e-16	-6.9433866	-1.3633308e+14
0	0.0028616874	-0.0027110307	0.1444468	0	0.00017449749	0.004996955	3.4158544e-16	-1.6423736e-17	-5.397353e-16	-1.9041931e-18	-2.1647782e-16	-7.9429345	-1.5595915e+14
0	0.004628317	-0.0007292975	0.26559404	0	0.00034899497	0.00999391	3.440903e-16	-1.74931e-17	-5.393837e-16	-7.006393e-18	-2.1979293e-16	-9.013916	-1.7698785e+14
0	-0.0036357509	0.000813683	0.34924206	0	0.00052349264	0.014990865	3.5108478e-16	-1.9640959e-17	-5.441388e-16	-1.3822003e-17	-2.2651697e-16	-12.98226	-2.5490607e+14
0	-0.0044144704	0.006611225	0.45074543	0	0.00069798995	0.01998782	3.6532957e-16	-1.7012617e-17	-5.566664e-16	-2.3795864e-17	-2.3214537e-16	-13.97934	-2.744837e+14
0	-0.0004826648	0.006661917	0.53526807	0	0.00087248726	0.024984775	3.755063e-16	-1.5023704e-17	-5.634359e-16	-3.5319772e-17	-2.3827312e-16	-15.999165	-3.1414287e+14
0	-2.989873e-08	0.00558207	0.67232347	0	0.0010469853	0.02998173	4.035645e-16	-1.24323765e-17	-5.889613e-16	-5.3228374e-17	-2.510575e-16	-17.980621	-3.5304866e+14
0	-8.48946e-07	0.006472163	0.74105674	0	0.0012214825	0.034978684	4.1777634e-16	-8.77735e-18	-6.000324e-16	-6.844942e-17	-2.5948277e-16	-18.977863	-3.7262955e+14
0	-2.129018e-07	0.0073137525	0.79223096	0	0.0013959799	0.03997564	4.2912558e-16	-4.804686e-18	-6.083414e-16	-8.3631434e-17	-2.6765193e-16	-20.9727	-4.11798e+14
0	-6.105802e-07	0.00812789	0.838002	0	0.0015704778	0.044972595	4.4178973e-16	-7.4432726e-19	-6.188365e-16	-9.9522765e-17	-2.7731388e-16	-21.967665	-4.313341e+14
0	-3.3313336e-07	0.008895895	0.87322867	0	0.0017449745	0.04996955	4.526966e-16	3.2566006e-18	-6.281824e-16	-1.1523126e-16	-2.8746043e-16	-22.960892	-4.5083604e+14
0	2.2650966e-08	0.009578138	0.88919157	0	0.0019194725	0.054966506	4.570817e-16	8.240812e-18	-6.307264e-16	-1.2907412e-16	-2.9447807e-16	-26.94502	-5.2906424e+14
0	5.410857e-08	0.01028642	0.917157	0	0.0020939705	0.05996346	4.679225e-16	1.1279531e-17	-6.415259e-16	-1.4523883e-16	-3.0756277e-16	-25.936138	-5.0925484e+14
0	5.655329e-08	0.010945392	0.9364945	0	0.0022684673	0.06496041	4.757856e-16	1.4521005e-17	-6.493908e-16	-1.6066217e-16	-3.1974628e-16	-25.918713	-5.0891276e+14
0	8.382085e-08	0.011572629	0.9520388	0	0.002442965	0.06995737	4.824942e-16	1.652779e-17	-6.56585e-16	-1.7589555e-16	-3.3345847e-16	-24.89771	-4.888654e+14
0	7.546987e-08	0.0121619785	0.96280825	0	0.002617462	0.07495431	4.872897e-16	1.8970888e-17	-6.6175375e-16	-1.9059452e-16	-3.4608774e-16	-24.855204	-4.880308e+14
0	2.7101369e-06	0.012767243	0.9783082	0	0.0027919598	0.07995128	4.946052e-16	1.8518263e-17	-6.706186e-16	-2.065767e-16	-3.6407183e-16	-20.7463	-4.0735265e+14
0	2.023392e-06	0.01335855	0.99854726	0	0.0029664563	0.08494823	5.0443724e-16	1.9694627e-18	-6.845035e-16	-2.2403106e-16	-4.0212789e-16	-1.9425697	-3.8142267e+13
0	1.2669909e-07	0.013827398	0.9982512	0	0.0031409557	0.08994519	5.04288e-16	1.8795386e-18	-6.843226e-16	-2.3714291e-16	-4.1529795e-16	-1.9656847	-3.859613e+13
0	3.148324e-08	0.014285046	0.99911064	0	0.0033154523	0.09494212	5.0470633e-16	9.518881e-19	-6.849356e-16	-2.5053691e-16	-4.2981432e-16	-0.9812854	-1.9267492e+13
0	8.967869e-10	0.01472275	0.9998914	0	0.003489949	0.0999391	5.050864e-16	4.376705e-27	-6.855031e-16	-2.639332e-16	-4.443499e-16	5.928984e-23	9.313226e-10
0	5.4762985e-09	0.01513967	0.9998855	0	0.0036644484	0.10493601	5.0508003e-16	-3.2503346e-27	-6.854946e-16	-2.7713216e-16	-4.5754676e-16	-1.7786952e-23	-3.4924597e-10
0	2.172967e-09	0.015539706	0.999879	0	0.003838945	0.10993301	5.05074e-16	4.9065564e-28	-6.8548624e-16	-2.903311e-16	-4.707434e-16	-4.1502884e-23	-8.1490725e-10
0	-5.221936e-09	0.015923873	0.9998732	0	0.004013442	0.11492992	5.050678e-16	5.86992e-27	-6.854781e-16	-3.035302e-16	-4.839405e-16	3.8538392e-23	7.566996e-10
0	-3.744661e-09	0.016293101	0.9998674	0	0.004187941	0.11992692	5.0506166e-16	1.5604798e-27	-6.854698e-16	-3.1672947e-16	-4.971376e-16	-1.7786952e-23	-3.4924597e-10
0	8.534766e-09	0.016648244	0.99986166	0	0.0043624374	0.12492383	5.0505594e-16	8.3667165e-27	-6.854619e-16	-3.299287e-16	-5.1033465e-16	-1.7786952e-23	-3.4924597e-10
0	1.8930272e-08	0.016990094	0.9998559	0	0.0045369347	0.12992083	5.050502e-16	-9.845457e-27	-6.8545395e-16	-3.4312802e-16	-5.2353174e-16	-2.3715934e-23	-4.656613e-10
0	8.041826e-09	0.017319368	0.9998502	0	0.004711432	0.13491775	5.0504435e-16	-3.5115795e-26	-6.854462e-16	-3.5632728e-16	-5.3672915e-16	3.5573903e-23	6.4028427e-10
0	3.7875005e-09	0.017636754	0.99984455	0	0.00488593	0.13991474	5.050389e-16	-2.239466e-26	-6.8543865e-16	-3.6952662e-16	-5.499264e-16	-1.1857967e-23	-2.401066e-10
0	2.1262505e-09	0.01794289	0.9998389	0	0.005060427	0.14491166	5.050333e-16	-1.9397023e-26	-6.8543113e-16	-3.8272601e-16	-5.6312386e-16	1.482246e-23	2.910383e-10
0	9.871339e-09	0.018238364	0.99983394	0	0.005234924	0.14990862	5.0502804e-16	1.0583279e-26	-6.8542367e-16	-3.959254e-16	-5.7632106e-16	-4.446738e-24	-8.731149e-11
0	-9.932052e-09	0.01852371	0.9998284	0	0.0054094223	0.15490557	5.050227e-16	-1.5227299e-28	-6.854166e-16	-4.0912496e-16	-5.8951884e-16	1.2228529e-23	2.401066e-10
0	6.461886e-09	0.018799467	0.9998235	0	0.0055839196	0.15990256	5.050174e-16	-1.2796651e-26	-6.854096e-16	-4.2232435e-16	-6.0271656e-16	-2.6680428e-23	-5.2386895e-10
0	1.0584872e-08	0.019066079	0.9998182	0	0.005758417	0.16489948	5.0501237e-16	6.54964e-27	-6.8540265e-16	-4.3552388e-16	-6.1591413e-16	8.893476e-24	1.7462298e-10
