# t (s)	mx ()	my ()	mz ()	B_extx (T)	B_exty (T)	B_extz (T)	E_demag (J)	E_exch (J)	E_anis (J)	E_Zeeman (J)	E_total (J)	ext_topologicalcharge ()	ext_topologicalchargedensity (1/m2)
0	0.0011501871	-0.0010973302	0.010663845	0	0	0	6.877405e-16	-3.3680283e-17	-1.0249245e-15	-0	-3.708641e-16	-2.9829805	-5.8570683e+13
0	0.0038580701	-0.008546367	0.10785121	0	0.00034899497	0.00999391	6.924379e-16	-3.5470173e-17	-1.0269381e-15	-4.223444e-18	-3.741939e-16	-11.918695	-2.3402304e+14
0	-0.00089336134	0.0028456978	0.20370789	0	0.00069798995	0.01998782	7.024262e-16	-3.777672e-17	-1.0325793e-15	-1.6006446e-17	-3.839364e-16	-16.95692	-3.3294835e+14
0	0.0011468943	-0.0044204416	0.30384228	0	0.0010469853	0.02998173	7.233753e-16	-2.8685406e-17	-1.047674e-15	-3.5776187e-17	-3.8876028e-16	-19.018843	-3.734341e+14
0	0.0056411447	0.009135764	0.40552375	0	0.0013959799	0.03997564	7.432433e-16	-1.862595e-17	-1.0569587e-15	-6.374749e-17	-3.960888e-16	-22.070772	-4.333586e+14
0	0.01017098	0.0040682815	0.49210054	0	0.0017449745	0.04996955	7.725907e-16	-1.9173833e-17	-1.0733163e-15	-9.664836e-17	-4.165479e-16	-31.973284	-6.2779396e+14
0	0.0042034583	0.009101614	0.56888825	0	0.0020939705	0.05996346	8.043169e-16	-1.4746849e-17	-1.0930184e-15	-1.3411152e-16	-4.3755986e-16	-32.931248	-6.466035e+14
0	0.0028447912	0.012553953	0.6508009	0	0.002442965	0.06995737	8.503556e-16	-1.36019926e-17	-1.123643e-15	-1.7901274e-16	-4.6590216e-16	-35.86642	-7.0423545e+14
0	0.0014575898	0.015276714	0.7203458	0	0.0027919598	0.07995128	8.945667e-16	-1.4142573e-17	-1.153344e-15	-2.2646323e-16	-4.9938315e-16	-38.78989	-7.616377e+14
0	-3.7882273e-08	0.01434308	0.7699515	0	0.0031409557	0.08994519	9.224725e-16	-8.107135e-18	-1.1689405e-15	-2.7229118e-16	-5.268663e-16	-42.74168	-8.39231e+14
0	-1.6625563e-08	0.01554456	0.8096933	0	0.003489949	0.0999391	9.458214e-16	8.6080587e-19	-1.1805403e-15	-3.1816823e-16	-5.5202614e-16	-48.665123	-9.555375e+14
0	3.178675e-07	0.016792173	0.8635674	0	0.003838945	0.10993301	9.885616e-16	7.928367e-18	-1.2110483e-15	-3.7327506e-16	-5.8783367e-16	-45.643356	-8.962051e+14
0	1.4834222e-06	0.017814584	0.89502406	0	0.004187941	0.11992692	1.0139385e-15	1.6782684e-17	-1.2275572e-15	-4.220491e-16	-6.1888505e-16	-48.54594	-9.531973e+14
0	-4.0298073e-07	0.018766928	0.9238621	0	0.0045369347	0.12992083	1.0399379e-15	2.5126738e-17	-1.2464418e-15	-4.719584e-16	-6.533355e-16	-49.4164	-9.7028875e+14
0	2.0352973e-06	0.019717673	0.9590481	0	0.00488593	0.13991474	1.075269e-15	2.3479482e-17	-1.2776897e-15	-5.27625e-16	-7.065662e-16	-36.43496	-7.1539874e+14
0	4.106206e-06	0.020566095	0.98475236	0	0.005234924	0.14990862	1.1023682e-15	1.8766356e-17	-1.3033642e-15	-5.8047046e-16	-7.627002e-16	-22.303268	-4.379237e+14
0	9.32508e-09	0.02116093	0.99977595	0	0.0055839196	0.15990256	1.1187174e-15	1.788366e-26	-1.3217219e-15	-6.286209e-16	-8.316253e-16	2.9644918e-24	7.2759576e-11
0	-7.0823805e-09	0.021662725	0.9997654	0	0.0059329127	0.16989645	1.1186931e-15	-4.290735e-26	-1.3216934e-15	-6.6791433e-16	-8.709145e-16	-3.2016512e-22	-6.0535967e-09
0	-3.7069487e-09	0.02212915	0.99975497	0	0.0062819114	0.17989038	1.1186701e-15	1.1270417e-26	-1.3216664e-15	-7.0720755e-16	-9.102038e-16	-2.964492e-23	-5.820766e-10
0	-1.928359e-09	0.022563843	0.9997454	0	0.0066309045	0.18988425	1.1186484e-15	-3.7791803e-27	-1.3216409e-15	-7.4650104e-16	-9.494934e-16	-4.1502884e-23	-6.9849193e-10
