# t (s)	mx ()	my ()	mz ()	B_extx (T)	B_exty (T)	B_extz (T)	E_demag (J)	E_exch (J)	E_anis (J)	E_Zeeman (J)	E_total (J)	ext_topologicalcharge ()	ext_topologicalchargedensity (1/m2)
0	0.0019978932	-0.0014605147	-0.0010105647	0	0	0	4.0478704e-16	-6.7578115e-17	-6.3298423e-16	-0	-2.9577522e-16	0.017254096	3.3878337e+11
0	0.0010618807	0.0005370866	0.11580419	0	0.00034899497	0.00999391	4.1127952e-16	-6.7895143e-17	-6.4020423e-16	-3.5275436e-18	-3.003473e-16	-10.972114	-2.1543699e+14
0	0.00176823	0.0011555215	0.23153847	0	0.00069798995	0.01998782	4.206712e-16	-6.2525616e-17	-6.470314e-16	-1.4106086e-17	-3.0299184e-16	-19.015497	-3.7336842e+14
0	0.0016158131	0.005777292	0.35312885	0	0.0010469853	0.02998173	4.383861e-16	-5.498978e-17	-6.617077e-16	-3.2283476e-17	-3.1059494e-16	-25.010284	-4.910758e+14
0	0.0024781877	0.009024184	0.4680082	0	0.0013959799	0.03997564	4.615804e-16	-4.5689397e-17	-6.8024957e-16	-5.705366e-17	-3.2141216e-16	-28.025253	-5.5027457e+14
0	0.0035277228	0.009618396	0.5632852	0	0.0017449745	0.04996955	4.8143897e-16	-4.2040204e-17	-6.9158906e-16	-8.582919e-17	-3.3801954e-16	-38.932793	-7.644436e+14
0	0.0017686636	0.0107952785	0.6355802	0	0.0020939705	0.05996346	5.0022807e-16	-3.7068693e-17	-7.027209e-16	-1.1621358e-16	-3.557751e-16	-46.862724	-9.201474e+14
0	-9.1985567e-07	0.010419024	0.7052099	0	0.002442965	0.06995737	5.247901e-16	-2.966078e-17	-7.21708e-16	-1.5042437e-16	-3.7700317e-16	-47.842323	-9.393818e+14
0	-1.0359763e-06	0.011690995	0.75614405	0	0.0027919598	0.07995128	5.423985e-16	-2.0161573e-17	-7.3284687e-16	-1.8433454e-16	-3.9494452e-16	-53.79672	-1.0562961e+15
0	-2.3736357e-07	0.012982957	0.80889887	0	0.0031409557	0.08994519	5.6560943e-16	-1.089724e-17	-7.516715e-16	-2.2184917e-16	-4.1880845e-16	-53.76986	-1.0557687e+15
0	-2.1819869e-07	0.01420684	0.8543569	0	0.003489949	0.0999391	5.877316e-16	-1.9597729e-18	-7.703829e-16	-2.6035696e-16	-4.4496795e-16	-52.73695	-1.03548756e+15
0	-1.4247598e-07	0.015229162	0.8814657	0	0.003838945	0.10993301	6.012339e-16	7.3574796e-18	-7.808563e-16	-2.9548657e-16	-4.677514e-16	-56.65452	-1.1124089e+15
0	-1.9408617e-09	0.016202241	0.9058894	0	0.004187941	0.11992692	6.145697e-16	1.5992035e-17	-7.9231097e-16	-3.3128771e-16	-4.930369e-16	-58.549942	-1.1496254e+15
0	2.7559508e-08	0.017204069	0.93392146	0	0.0045369347	0.12992083	6.3120223e-16	2.0637655e-17	-8.0890487e-16	-3.7000773e-16	-5.2707276e-16	-52.476048	-1.0303648e+15
0	9.117193e-07	0.01812784	0.95641	0	0.00488593	0.13991474	6.4510966e-16	2.5242022e-17	-8.2318267e-16	-4.0807247e-16	-5.6090347e-16	-47.25336	-9.2781756e+14
0	1.661314e-06	0.018981542	0.9744529	0	0.005234924	0.14990862	6.5655133e-16	2.497859e-17	-8.359508e-16	-4.4547686e-16	-5.9989774e-16	-37.97213	-7.45581e+14
0	-1.119318e-08	0.01983852	0.9998034	0	0.0055839196	0.15990256	6.729904e-16	-1.070214e-26	-8.5743896e-16	-4.875433e-16	-6.7199184e-16	-3.67597e-22	-7.21775e-09
0	2.1063085e-09	0.020355402	0.999793	0	0.0059329127	0.16989645	6.7297636e-16	2.6269906e-26	-8.574209e-16	-5.180185e-16	-7.0246306e-16	1.5415357e-22	3.0267984e-09
0	-4.049042e-09	0.020838005	0.9997827	0	0.0062819114	0.17989038	6.729629e-16	1.7664673e-26	-8.5740397e-16	-5.4849407e-16	-7.329351e-16	-1.778695e-22	-3.4924597e-09
0	1.7052135e-09	0.021289617	0.99977314	0	0.0066309045	0.18988425	6.7295037e-16	6.8590926e-26	-8.573877e-16	-5.7896957e-16	-7.634069e-16	-1.7786952e-23	-3.4924597e-10
