# t (s)	mx ()	my ()	mz ()	B_extx (T)	B_exty (T)	B_extz (T)	E_demag (J)	E_exch (J)	E_anis (J)	E_Zeeman (J)	E_total (J)	ext_topologicalcharge ()	ext_topologicalchargedensity (1/m2)
0	0.0003375421	-0.00018774968	0.020784386	0	0	0	2.0375964e-16	-3.229859e-17	-3.812857e-16	-0	-2.0982462e-16	-5.9826093	-1.1746826e+14
0	8.0488564e-05	0.00046639313	0.122116625	0	0.00017449749	0.004996955	2.0602726e-16	-3.1478163e-17	-3.8344284e-16	-1.2910456e-18	-2.101848e-16	-13.955778	-2.7402106e+14
0	0.00012953756	0.0010432395	0.22200993	0	0.00034899497	0.00999391	2.0853884e-16	-3.0997743e-17	-3.8529088e-16	-4.694426e-18	-2.1244423e-16	-19.937708	-3.9147593e+14
0	-0.00030671427	0.0016250589	0.31568992	0	0.00052349264	0.014990865	2.1586239e-16	-2.8855534e-17	-3.925202e-16	-1.0013107e-17	-2.1552643e-16	-21.9322	-4.3063775e+14
0	-6.627804e-05	0.003079775	0.43244648	0	0.00069798995	0.01998782	2.238921e-16	-2.6427026e-17	-3.9871294e-16	-1.8289812e-17	-2.1953773e-16	-32.895546	-6.4590255e+14
0	-2.923406e-06	0.0038791366	0.50968486	0	0.00087248726	0.024984775	2.3043076e-16	-2.4371724e-17	-4.0339388e-16	-2.6946108e-17	-2.2428096e-16	-35.883812	-7.04577e+14
0	0.0012437475	0.0031967184	0.58117723	0	0.0010469853	0.02998173	2.3691909e-16	-2.1196975e-17	-4.06884e-16	-3.6868208e-17	-2.2803014e-16	-39.873783	-7.829199e+14
0	-8.23984e-07	0.0054095513	0.64888525	0	0.0012214825	0.034978684	2.4671386e-16	-1.8474966e-17	-4.1516804e-16	-4.8028747e-17	-2.349579e-16	-40.854286	-8.0217205e+14
0	8.785646e-07	0.0062023886	0.7200133	0	0.0013959799	0.03997564	2.5932038e-16	-1.4727279e-17	-4.2696443e-16	-6.0907386e-17	-2.4327877e-16	-37.860054	-7.4338046e+14
0	-8.978168e-08	0.0069606067	0.777429	0	0.0015704778	0.044972595	2.6962065e-16	-1.10502305e-17	-4.3574533e-16	-7.398572e-17	-2.511606e-16	-37.84973	-7.431777e+14
0	-1.3498357e-07	0.007664337	0.81714225	0	0.0017449745	0.04996955	2.7683895e-16	-7.515239e-18	-4.4119572e-16	-8.640697e-17	-2.5827893e-16	-40.82023	-8.015033e+14
0	1.14392606e-07	0.008324417	0.8456524	0	0.0019194725	0.054966506	2.823739e-16	-3.9945747e-18	-4.4524785e-16	-9.836548e-17	-2.6523397e-16	-44.77802	-8.792144e+14
0	1.18769094e-07	0.008970666	0.87235063	0	0.0020939705	0.05996346	2.8837536e-16	-5.378013e-19	-4.504847e-16	-1.10697326e-16	-2.7334444e-16	-46.73762	-9.17691e+14
0	2.1396772e-08	0.00960626	0.8978507	0	0.0022684673	0.06496041	2.9472877e-16	2.6840822e-18	-4.566591e-16	-1.2342939e-16	-2.8267565e-16	-46.6985	-9.169229e+14
0	-4.375397e-08	0.010206025	0.9169436	0	0.002442965	0.06995737	2.997188e-16	5.4547954e-18	-4.616936e-16	-1.3575266e-16	-2.922726e-16	-46.649334	-9.1595754e+14
0	-3.1819673e-07	0.010784995	0.9336207	0	0.002617462	0.07495431	3.0431819e-16	7.810756e-18	-4.666232e-16	-1.4809686e-16	-3.0259109e-16	-45.591	-8.951772e+14
0	1.05432264e-07	0.011333016	0.9460737	0	0.0027919598	0.07995128	3.0786148e-16	1.01532996e-17	-4.704581e-16	-1.6007941e-16	-3.1252268e-16	-45.4936	-8.9326475e+14
0	-2.419165e-07	0.011882352	0.9601597	0	0.0029664563	0.08494823	3.1205398e-16	1.1264021e-17	-4.755375e-16	-1.7261913e-16	-3.248386e-16	-41.399784	-8.128828e+14
0	3.073119e-07	0.012415478	0.97290725	0	0.0031409557	0.08994519	3.1593196e-16	1.1322028e-17	-4.8054085e-16	-1.8520228e-16	-3.3848922e-16	-35.27669	-6.926562e+14
0	-1.4430652e-06	0.012995569	0.99642366	0	0.0033154523	0.09494212	3.2326803e-16	2.6681922e-18	-4.913651e-16	-2.0021854e-16	-3.656474e-16	-6.6868286	-1.3129557e+14
0	1.19261045e-08	0.01342905	0.9994147	0	0.003489949	0.0999391	3.2420215e-16	3.8222768e-19	-4.92883e-16	-2.1139191e-16	-3.7969057e-16	-0.9579758	-1.8809811e+13
0	-6.84269e-08	0.013834612	0.9994355	0	0.0036644484	0.10493601	3.24207e-16	3.8958677e-19	-4.9288815e-16	-2.2196925e-16	-3.9026087e-16	-0.95314837	-1.8715024e+13
0	-5.759155e-09	0.014226555	0.99989885	0	0.003838945	0.10993301	3.2435012e-16	3.2968328e-26	-4.9312474e-16	-2.3265012e-16	-4.0142472e-16	5.3360855e-23	1.0477379e-09
0	-8.620241e-09	0.01460275	0.99989325	0	0.004013442	0.11492992	3.2434657e-16	-4.4844773e-26	-4.9311934e-16	-2.4322707e-16	-4.1199982e-16	4.7431868e-23	9.313226e-10
0	5.4764753e-09	0.014965491	0.9998883	0	0.004187941	0.11992692	3.24343e-16	-2.764906e-26	-4.93114e-16	-2.5380403e-16	-4.2257502e-16	-5.9289835e-24	-1.1641532e-10
0	9.245158e-09	0.015315504	0.9998827	0	0.0043624374	0.12492383	3.2433972e-16	1.0825998e-26	-4.9310875e-16	-2.6438093e-16	-4.3314996e-16	2.3715934e-23	6.9849193e-10
0	3.5253787e-09	0.015653446	0.9998778	0	0.0045369347	0.12992083	3.2433627e-16	-1.7728102e-26	-4.931037e-16	-2.7495806e-16	-4.437255e-16	-5.1878605e-24	-1.0186341e-10
0	7.2318773e-09	0.015979929	0.99987227	0	0.004711432	0.13491775	3.2433294e-16	-1.6506193e-26	-4.9309854e-16	-2.855352e-16	-4.543008e-16	2.1344342e-22	4.1909516e-09
0	-1.8578061e-09	0.01629552	0.9998674	0	0.00488593	0.13991474	3.243297e-16	1.8635337e-26	-4.9309345e-16	-2.9611224e-16	-4.6487603e-16	-2.223369e-24	-4.3655746e-11
0	-8.304853e-09	0.016600758	0.99986255	0	0.005060427	0.14491166	3.2432637e-16	1.0491105e-27	-4.930886e-16	-3.0668948e-16	-4.754517e-16	-4.1502886e-22	-8.1490725e-09
